{
  "page": 4,
  "total_results": 19835,
  "total_pages": 992,
  "results": [
    {
      "vote_count": 67,
      "id": 433502,
      "video": false,
      "vote_average": 6.3,
      "title": "The Aftermath",
      "popularity": 42.78,
      "poster_path": "\/slGZ8miznmAZAaDHEz6BKo7f1N5.jpg",
      "original_language": "en",
      "original_title": "The Aftermath",
      "genre_ids": [
        18,
        10749,
        10752
      ],
      "backdrop_path": "\/j2iZourlSz3vlUyfE2LHOveZzDi.jpg",
      "adult": false,
      "overview": "In the aftermath of World War II, a British colonel and his wife are assigned to live in Hamburg during the post-war reconstruction, but tensions arise with the German widower who lives with them.",
      "release_date": "2019-03-01"
    },
    {
      "vote_count": 12419,
      "id": 22,
      "video": false,
      "vote_average": 7.7,
      "title": "Pirates of the Caribbean: The Curse of the Black Pearl",
      "popularity": 42.46,
      "poster_path": "\/tkt9xR1kNX5R9rCebASKck44si2.jpg",
      "original_language": "en",
      "original_title": "Pirates of the Caribbean: The Curse of the Black Pearl",
      "genre_ids": [
        12,
        14,
        28
      ],
      "backdrop_path": "\/8AUQ7YlJJA9C8kWk8P4YNHIcFDE.jpg",
      "adult": false,
      "overview": "Jack Sparrow, a freewheeling 18th-century pirate, quarrels with a rival pirate bent on pillaging Port Royal. When the governor's daughter is kidnapped, Sparrow decides to help the girl's love save her.",
      "release_date": "2003-07-09"
    },
    {
      "vote_count": 12373,
      "id": 263115,
      "video": false,
      "vote_average": 7.8,
      "title": "Logan",
      "popularity": 41.683,
      "poster_path": "\/gGBu0hKw9BGddG8RkRAMX7B6NDB.jpg",
      "original_language": "en",
      "original_title": "Logan",
      "genre_ids": [
        28,
        18,
        878
      ],
      "backdrop_path": "\/5pAGnkFYSsFJ99ZxDIYnhQbQFXs.jpg",
      "adult": false,
      "overview": "In the near future, a weary Logan cares for an ailing Professor X in a hideout on the Mexican border. But Logan's attempts to hide from the world and his legacy are upended when a young mutant arrives, pursued by dark forces.",
      "release_date": "2017-02-28"
    },
    {
      "vote_count": 2453,
      "id": 424783,
      "video": false,
      "vote_average": 6.5,
      "title": "Bumblebee",
      "popularity": 40.811,
      "poster_path": "\/fw02ONlDhrYjTSZV8XO6hhU3ds3.jpg",
      "original_language": "en",
      "original_title": "Bumblebee",
      "genre_ids": [
        28,
        12,
        878
      ],
      "backdrop_path": "\/wtZj5nn6hVwgakPdg6y6gm3eFXU.jpg",
      "adult": false,
      "overview": "On the run in the year 1987, Bumblebee finds refuge in a junkyard in a small Californian beach town. Charlie, on the cusp of turning 18 and trying to find her place in the world, discovers Bumblebee, battle-scarred and broken.  When Charlie revives him, she quickly learns this is no ordinary yellow VW bug.",
      "release_date": "2018-12-15"
    }
  ]
}